%YAML 1.1
%TAG !u! tag:unity3d.com,2011:
--- !u!1 &3376457044876199550
GameObject:
  m_ObjectHideFlags: 0
  m_CorrespondingSourceObject: {fileID: 0}
  m_PrefabInstance: {fileID: 0}
  m_PrefabAsset: {fileID: 0}
  serializedVersion: 6
  m_Component:
  - component: {fileID: 3376457044876199520}
  - component: {fileID: 3376457045216154867}
  m_Layer: 0
  m_Name: CardboardSolARTrackPipeline
  m_TagString: Untagged
  m_Icon: {fileID: 0}
  m_NavMeshLayer: 0
  m_StaticEditorFlags: 0
  m_IsActive: 1
--- !u!4 &3376457044876199520
Transform:
  m_ObjectHideFlags: 0
  m_CorrespondingSourceObject: {fileID: 0}
  m_PrefabInstance: {fileID: 0}
  m_PrefabAsset: {fileID: 0}
  m_GameObject: {fileID: 3376457044876199550}
  m_LocalRotation: {x: 0, y: 0, z: 0, w: 1}
  m_LocalPosition: {x: 0, y: 0, z: 0}
  m_LocalScale: {x: 1, y: 1, z: 1}
  m_Children: []
  m_Father: {fileID: 0}
  m_RootOrder: 0
  m_LocalEulerAnglesHint: {x: 0, y: 0, z: 0}
--- !u!114 &3376457045216154867
MonoBehaviour:
  m_ObjectHideFlags: 0
  m_CorrespondingSourceObject: {fileID: 0}
  m_PrefabInstance: {fileID: 0}
  m_PrefabAsset: {fileID: 0}
  m_GameObject: {fileID: 3376457044876199550}
  m_Enabled: 1
  m_EditorHideFlags: 0
  m_Script: {fileID: 11500000, guid: f4c7eec255c548b4e963f7b4b7c65040, type: 3}
  m_Name: 
  m_EditorClassIdentifier: 
  focalX: 600
  focalY: 600
  width: 640
  height: 480
  centerX: 320
  centerY: 240
  arCamera: {fileID: 0}
  hasCanvas: 0
  hasCustomCanvas: 0
  canvas: {fileID: 0}
  material: {fileID: 0}
  m_pipelineFolder: /SolAR/Pipelines
  m_pipelinesName:
  - PipelineFiducialMarker
  - PipelineNaturalImageMarker
  - PipelineSlam
  m_pipelinesPath:
  - /SolAR/Pipelines/PipelineFiducialMarker.xml
  - /SolAR/Pipelines/PipelineNaturalImageMarker.xml
  - /SolAR/Pipelines/PipelineSlam.xml
  m_selectedPipeline: 0
  m_configurationPath: /SolAR/Pipelines/PipelineFiducialMarker.xml
  webcamIndex: 0
  conf:
    autoAlias: 1
    modules:
    - uuid: 63b4282f-94cf-44d0-8ec0-9e8b0639fff6
      name: SolARPipeline_FiducialMarker
      path: ./Assets/Plugins
      description: The module embedding a pipeline to estimate the pose based on
        a squared fiducial marker
      components:
      - uuid: 3898cc3b-3986-4edc-b7c8-f4fba0f6c22a
        name: PipelineFiducialMarker
        description: A pipeline to estimate the pose based on a squared fiducial
          marker
        interfaces:
        - uuid: 125f2007-1bf9-421d-9367-fbdc1210d006
          name: IComponentIntrospect
          description: IComponentIntrospect
        - uuid: b5a6225e-6a91-4050-b298-886f4c17d9d2
          name: IPoseEstimationPipeline
          description: The interface to define a video see-throuh pipeline
    - uuid: 15e1990b-86b2-445c-8194-0cbe80ede970
      name: SolARModuleOpenCV
      path: ./Assets/Plugins
      description: OpenCV
      components:
      - uuid: 5B7396F4-A804-4F3C-A0EB-FB1D56042BB4
        name: SolARCameraOpencv
        description: SolARCameraOpencv
        interfaces:
        - uuid: 125f2007-1bf9-421d-9367-fbdc1210d006
          name: IComponentIntrospect
          description: IComponentIntrospect
        - uuid: 5DDC7DF0-8377-437F-9C81-3643F7676A5B
          name: ICamera
          description: ICamera
      - uuid: fa4a780a-9720-11e8-9eb6-529269fb1459
        name: SolARVideoAsCameraOpencv
        description: SolARVideoAsCameraOpencv
        interfaces:
        - uuid: 125f2007-1bf9-421d-9367-fbdc1210d006
          name: IComponentIntrospect
          description: IComponentIntrospect
        - uuid: 5DDC7DF0-8377-437F-9C81-3643F7676A5B
          name: ICamera
          description: ICamera
      - uuid: 5d2b8da9-528e-4e5e-96c1-f883edcf3b1c
        name: SolARMarker2DSquaredBinaryOpencv
        description: SolARMarker2DSquaredBinaryOpencv
        interfaces:
        - uuid: 125f2007-1bf9-421d-9367-fbdc1210d006
          name: IComponentIntrospect
          description: IComponentIntrospect
        - uuid: 3c9cee8a-e9ca-4c16-851a-669a94c2a68d
          name: IMarker
          description: IMarker
        - uuid: e9cdcf6e-c54c-11e7-abc4-cec278b6b50a
          name: IMarker2Dquared
          description: IMarker2Dquared
        - uuid: 12d592ff-aa46-40a6-8d65-7fbfb382d60b
          name: IMarker2DSquaredBinary
          description: IMarker2DSquaredBinary
      - uuid: 4309dcc6-cc73-11e7-abc4-cec278b6b50a
        name: SolARContoursFilterBinaryMarkerOpencv
        description: SolARContoursFilterBinaryMarkerOpencv
        interfaces:
        - uuid: 125f2007-1bf9-421d-9367-fbdc1210d006
          name: IComponentIntrospect
          description: IComponentIntrospect
        - uuid: 6b3de3a0-cc72-11e7-abc4-cec278b6b50a
          name: IContoursFilter
          description: IContoursFilter
      - uuid: e5fd7e9a-fcae-4f86-bfc7-ea8584c298b2
        name: SolARImageFilterBinaryOpencv
        description: SolARImageFilterBinaryOpencv
        interfaces:
        - uuid: 125f2007-1bf9-421d-9367-fbdc1210d006
          name: IComponentIntrospect
          description: IComponentIntrospect
        - uuid: f7948ae2-e994-416f-be40-dd404ca03a83
          name: IImageFilter
          description: IImageFilter
      - uuid: fd7fb607-144f-418c-bcf2-f7cf71532c22
        name: SolARImageConvertorOpencv
        description: SolARImageConvertorOpencv
        interfaces:
        - uuid: 125f2007-1bf9-421d-9367-fbdc1210d006
          name: IComponentIntrospect
          description: IComponentIntrospect
        - uuid: 9c982719-6cb4-4831-aa88-9e01afacbd16
          name: IImageConvertor
          description: IImageConvertor
      - uuid: 6acf8de2-cc63-11e7-abc4-cec278b6b50a
        name: SolARContoursExtractorOpencv
        description: SolARContoursExtractorOpencv
        interfaces:
        - uuid: 125f2007-1bf9-421d-9367-fbdc1210d006
          name: IComponentIntrospect
          description: IComponentIntrospect
        - uuid: 42d82ab6-cc62-11e7-abc4-cec278b6b50a
          name: IContoursExtractor
          description: IContoursExtractor
      - uuid: 9c960f2a-cd6e-11e7-abc4-cec278b6b50a
        name: SolARPerspectiveControllerOpencv
        description: SolARPerspectiveControllerOpencv
        interfaces:
        - uuid: 125f2007-1bf9-421d-9367-fbdc1210d006
          name: IComponentIntrospect
          description: IComponentIntrospect
        - uuid: 4a7d5c34-cd6e-11e7-abc4-cec278b6b50a
          name: IPerspectiveController
          description: IPerspectiveController
      - uuid: d25625ba-ce3a-11e7-abc4-cec278b6b50a
        name: SolARDescriptorsExtractorSBPatternOpencv
        description: SolARDescriptorsExtractorSBPatternOpencv
        interfaces:
        - uuid: 125f2007-1bf9-421d-9367-fbdc1210d006
          name: IComponentIntrospect
          description: IComponentIntrospect
        - uuid: 2e2bde18-ce39-11e7-abc4-cec278b6b50a
          name: IDescriptorsExtractorSBPattern
          description: IDescriptorsExtractorSBPattern
      - uuid: 549f7873-96e4-4eae-b4a0-ae8d80664ce5
        name: SolARDescriptorMatcherRadiusOpencv
        description: SolARDescriptorMatcherRadiusOpencv
        interfaces:
        - uuid: 125f2007-1bf9-421d-9367-fbdc1210d006
          name: IComponentIntrospect
          description: IComponentIntrospect
        - uuid: dda38a40-c50a-4e7d-8433-0f04c7c98518
          name: IDescriptorMatcher
          description: IDescriptorMatcher
      - uuid: 0753ade1-7932-4e29-a71c-66155e309a53
        name: SolARPoseEstimationPnpOpencv
        description: SolARPoseEstimationPnpOpencv
        interfaces:
        - uuid: 125f2007-1bf9-421d-9367-fbdc1210d006
          name: IComponentIntrospect
          description: IComponentIntrospect
        - uuid: 77281cda-47c2-4bb7-bde6-5b0d02e75dae
          name: I3DTransformFinderFrom2D3D
          description: I3DTransformFinderFrom2D3D
      - uuid: 65282fb3-6651-4e73-b532-5a64ade0ead0
        name: SolARImageConvertorUnity
        description: SolAR::MODULES::OPENCV::SolARImageConvertorUnity component
        interfaces:
        - uuid: 125f2007-1bf9-421d-9367-fbdc1210d006
          name: IComponentIntrospect
          description: IComponentIntrospect
        - uuid: 9c982719-6cb4-4831-aa88-9e01afacbd16
          name: IImageConvertor
          description: SolAR::api::image::IImageConvertor
      - uuid: cc51d685-9797-4ffd-a9dd-cec4f367fa6a
        name: SolAR2DOverlayOpencv
        description: SolAR2DOverlayOpencv
        interfaces:
        - uuid: 125f2007-1bf9-421d-9367-fbdc1210d006
          name: IComponentIntrospect
          description: IComponentIntrospect
        - uuid: 62b8b0b5-9344-40e6-a288-e609eb3ff0f1
          name: I2DOverlay
          description: I2DOverlay
      - uuid: 2db01f59-9793-4cd5-8e13-b25d0ed5735b
        name: SolAR3DOverlayOpencv
        description: SolAR3DOverlayOpencv
        interfaces:
        - uuid: 125f2007-1bf9-421d-9367-fbdc1210d006
          name: IComponentIntrospect
          description: IComponentIntrospect
        - uuid: 81a20f52-6bf9-4949-b914-df2f614bc945
          name: I3DOverlay
          description: I3DOverlay
      - uuid: 19ea4e13-7085-4e3f-92ca-93f200ffb01b
        name: SolARImageViewerOpencv
        description: SolARImageViewerOpencv
        interfaces:
        - uuid: 125f2007-1bf9-421d-9367-fbdc1210d006
          name: IComponentIntrospect
          description: IComponentIntrospect
        - uuid: b05f3dbb-f93d-465c-aee1-fb58e1480c42
          name: IImageViewer
          description: IImageViewer
    - uuid: 28b89d39-41bd-451d-b19e-d25a3d7c5797
      name: SolARModuleTools
      path: ./Assets/Plugins
      description: Module Tools
      components:
      - uuid: a2ef5542-029e-4fce-9974-0aea14b29d6f
        name: SolARSBPatternReIndexer
        description: SolARSBPatternReIndexer
        interfaces:
        - uuid: 125f2007-1bf9-421d-9367-fbdc1210d006
          name: IComponentIntrospect
          description: IComponentIntrospect
        - uuid: 79c5b810-d557-11e7-9296-cec278b6b50a
          name: ISBPatternReIndexer
          description: ISBPatternReIndexer
      - uuid: 6fed0169-4f01-4545-842a-3e2425bee248
        name: SolARImage2WorldMapper4Marker2D
        description: SolARImage2WorldMapper4Marker2D
        interfaces:
        - uuid: 125f2007-1bf9-421d-9367-fbdc1210d006
          name: IComponentIntrospect
          description: IComponentIntrospect
        - uuid: 67bcd080-258d-4b16-b693-cd30c013eb05
          name: IImage2WorldMapper
          description: IImage2WorldMapper
      - uuid: 85db2f25-4f1c-4e06-9011-e020284bfc4f
        name: SolARBasicSink
        description: A Sink component for a synchronized pose and image pair
        interfaces:
        - uuid: 125f2007-1bf9-421d-9367-fbdc1210d006
          name: IComponentIntrospect
          description: IComponentIntrospect
        - uuid: c0d9fee4-d7d7-4866-a6cd-3bacac23316a
          name: ISinkPoseImage
          description: An interface allowing to store a synchronized pose and image
            from the pipeline to make it available to a third party application
      - uuid: 1e43cda9-7850-4a8a-a32b-f3f31ea94902
        name: SolARBasicSource
        description: A source component for feeding the pipeline with external images
        interfaces:
        - uuid: 125f2007-1bf9-421d-9367-fbdc1210d006
          name: IComponentIntrospect
          description: IComponentIntrospect
        - uuid: 06e2fc5d-39da-4486-b2a6-1d8bd788fa13
          name: ISourceImage
          description: An interface allowing to store an image from extern source
            to make it available to the pipeline
    aliases: []
    factory:
      bindings:
      - interface: ICamera
        to: SolARCameraOpencv
        name: 
        range: 0
        scope: 
        component: []
      - interface: IImageConvertor
        to: SolARImageConvertorOpencv
        name: 
        range: 0
        scope: 
        component: []
      - interface: IImageConvertor
        to: SolARImageConvertorUnity
        name: imageConvertorUnity
        range: 0
        scope: 
        component: []
      injects: []
    componentsConfig: []
    properties:
    - component: PipelineFiducialMarker
      name: 
      properties:
      - name: minThreshold
        type: 0
        value: -1
        access: 0
        description: the minimum tested threshold for image binarization
        values: []
        properties: []
      - name: maxThreshold
        type: 0
        value: 220
        access: 0
        description: The maximum tested threshold for image binarization
        values: []
        properties: []
      - name: nbTestedThreshold
        type: 0
        value: 10
        access: 0
        description: The number of thresholds for image binarization tested between
          minThreshold and maxThreshold
        values: []
        properties: []
    - component: SolARCameraOpencv
      name: 
      properties:
      - name: calibrationFile
        type: 4
        value: ./Assets/StreamingAssets/SolAR/CameraCalibration/camera_calibration.yml
        access: 0
        description: path of the .yml file describing the calibration parameter of
          the camera.
        values: []
        properties: []
      - name: deviceID
        type: 1
        value: 0
        access: 0
        description: ID of the camera (default = 0)
        values: []
        properties: []
    - component: SolARMarker2DSquaredBinaryOpencv
      name: 
      properties:
      - name: filePath
        type: 4
        value: ./Assets/StreamingAssets/SolAR/Markers/fiducialMarker.yml
        access: 0
        description: Path of the .yml file describing the fiducial marker.
        values: []
        properties: []
    - component: SolARImageFilterBinaryOpencv
      name: 
      properties:
      - name: min
        type: 0
        value: -1
        access: 0
        description: minimum threshold (-1 to automatically compute it on the global
          image
        values: []
        properties: []
      - name: max
        type: 0
        value: 255
        access: 0
        description: maximum threshold
        values: []
        properties: []
    - component: SolARContoursExtractorOpencv
      name: 
      properties:
      - name: minContourEdges
        type: 0
        value: 4
        access: 0
        description: Minimum number of edge to validate a contour (default = 4)
        values: []
        properties: []
    - component: SolARContoursFilterBinaryMarkerOpencv
      name: 
      properties:
      - name: epsilon
        type: 6
        value: 0.05
        access: 0
        description: The maximum distance between the original curve and its approximation
          (default = 0.05)
        values: []
        properties: []
      - name: minContourLength
        type: 6
        value: 20.0
        access: 0
        description: The minimum length of an edge of the contour in pixels to be
          considered as valid (default = 20).
        values: []
        properties: []
      - name: minDistanceBetweenContourCorners
        type: 6
        value: 10.0
        access: 0
        description: The minimum average distance in pixels between corners of a
          contour and the same corners of another contour to consider the contour
          as valid (default = 10)
        values: []
        properties: []
    - component: SolARPerspectiveControllerOpencv
      name: 
      properties:
      - name: outputImageWidth
        type: 0
        value: 640
        access: 0
        description: The width in pixels of the corrected image.
        values: []
        properties: []
      - name: outputImageHeight
        type: 0
        value: 480
        access: 0
        description: The width in pixels of the corrected image.
        values: []
        properties: []
    - component: SolAR3DOverlayOpencv
      name: 
      properties:
      - name: position
        type: 6
        value: 
        access: 0
        description: 
        values:
        - 0
        - 0
        - 0
        properties: []
      - name: orientation
        type: 6
        value: 
        access: 0
        description: 
        values:
        - 0.0
        - 0.0
        - 0.0
        properties: []
      - name: size
        type: 6
        value: 
        access: 0
        description: 
        values:
        - 0.157
        - 0.157
        - 0.1
        properties: []
    - component: SolARImageViewerOpencv
      name: 
      properties:
      - name: title
        type: 4
        value: Fiducial Image Marker
        access: 0
        description: 
        values: []
        properties: []
      - name: exitKey
        type: 0
        value: 27
        access: 0
        description: 
        values: []
        properties: []
      - name: width
        type: 0
        value: 0
        access: 0
        description: 
        values: []
        properties: []
      - name: height
        type: 0
        value: 0
        access: 0
        description: 
        values: []
        properties: []
  webcamTexture: {fileID: 0}
  isUnityWebcam: 1
